<svg width="74" height="81" viewBox="0 0 74 81" fill="none" xmlns="http://www.w3.org/2000/svg">
<path fill-rule="evenodd" clip-rule="evenodd" d="M31.1265 0C29.5586 0.068535 29.8926 -0.0265961 28.2699 0.372154C-11.51 10.1228 13.7285 62.9952 32.1327 78.7208L33.673 79.8752C20.9585 60.0374 -0.129082 12.2553 31.1265 0ZM42.8735 0C74.1291 12.2553 53.0483 60.0374 40.327 79.8752L41.8673 78.7208C60.2715 62.9952 85.51 10.1228 45.7301 0.372154C44.1074 -0.0265961 44.4414 0.068535 42.8735 0ZM36.6744 0.551339C33.6226 0.730871 30.9022 3.56486 29.5449 5.94412C20.6783 21.4891 26.3398 48.2992 30.4821 64.1931L31.8777 69.6444C32.7952 72.8033 33.8377 75.6067 34.7826 79.0896L35.1926 80.2474L35.4545 80.7642L38.0631 80.778L38.3697 80.6402L38.7453 79.8304C40.3543 76.061 44.5815 59.9737 45.4579 55.8679C47.8406 44.7278 49.6251 33.3752 48.7556 21.9984C48.4269 17.6994 47.5379 12.8952 45.7715 8.87655C44.4226 5.79248 42.3952 2.25974 38.828 0.889034C38.1014 0.609831 37.3786 0.509908 36.6744 0.551339ZM15.434 4.19707C7.60816 7.51167 1.59728 14.7085 0.303236 22.5153L0 25.8302L0.0344553 28.4973L0.444514 31.4367L0.671941 32.8391C3.753 48.272 17.8448 68.5048 30.2444 79.2274C13.1 58.4114 -12.7747 25.4803 15.434 4.19707ZM58.5694 4.19707C86.7782 25.4803 60.9034 58.4114 43.7522 79.2274C56.1517 68.5048 70.2401 48.272 73.3212 32.8391L73.5486 31.4367L73.9587 28.4973L74 25.8302L73.7002 22.5153C72.4062 14.7085 66.3953 7.51167 58.5694 4.19707Z" fill="#3293ED"/>
</svg>
